<?xml version="1.0" encoding="UTF-8" standalone="no"?>
<!-- Created with Inkscape (http://www.inkscape.org/) -->

<svg
   xmlns:dc="http://purl.org/dc/elements/1.1/"
   xmlns:cc="http://creativecommons.org/ns#"
   xmlns:rdf="http://www.w3.org/1999/02/22-rdf-syntax-ns#"
   xmlns:svg="http://www.w3.org/2000/svg"
   xmlns="http://www.w3.org/2000/svg"
   xmlns:xlink="http://www.w3.org/1999/xlink"
   xmlns:sodipodi="http://sodipodi.sourceforge.net/DTD/sodipodi-0.dtd"
   xmlns:inkscape="http://www.inkscape.org/namespaces/inkscape"
   width="350"
   height="350"
   viewBox="0 0 350 350.00001"
   id="svg2"
   version="1.1"
   inkscape:version="0.91 r13725"
   sodipodi:docname="img.svg">
  <defs
     id="defs4">
    <linearGradient
       id="linearGradient5640"
       inkscape:collect="always">
      <stop
         id="stop5642"
         offset="0"
         style="stop-color:#00ff4b;stop-opacity:0.5" />
      <stop
         id="stop5644"
         offset="1"
         style="stop-color:#ff00be;stop-opacity:0.5" />
    </linearGradient>
    <linearGradient
       inkscape:collect="always"
       id="linearGradient5628">
      <stop
         style="stop-color:#fffe00;stop-opacity:1;"
         offset="0"
         id="stop5630" />
      <stop
         style="stop-color:#0900ff;stop-opacity:1"
         offset="1"
         id="stop5632" />
    </linearGradient>
    <linearGradient
       inkscape:collect="always"
       xlink:href="#linearGradient5628"
       id="linearGradient5634"
       x1="68.571426"
       y1="352.36221"
       x2="417.14288"
       y2="352.36221"
       gradientUnits="userSpaceOnUse"
       gradientTransform="matrix(1.0040983,0,0,1.0040983,-68.852455,523.5559)" />
    <linearGradient
       inkscape:collect="always"
       xlink:href="#linearGradient5640"
       id="linearGradient5638"
       gradientUnits="userSpaceOnUse"
       x1="68.571426"
       y1="352.36221"
       x2="417.14288"
       y2="352.36221"
       gradientTransform="matrix(1.0040983,0,0,1.0040983,633.50975,-528.80631)" />
  </defs>
  <sodipodi:namedview
     id="base"
     pagecolor="#ffffff"
     bordercolor="#666666"
     borderopacity="1.0"
     inkscape:pageopacity="0.0"
     inkscape:pageshadow="2"
     inkscape:zoom="0.7"
     inkscape:cx="292.84803"
     inkscape:cy="-44.657334"
     inkscape:document-units="px"
     inkscape:current-layer="layer1"
     showgrid="false"
     inkscape:window-width="1920"
     inkscape:window-height="1056"
     inkscape:window-x="1366"
     inkscape:window-y="24"
     inkscape:window-maximized="1"
     units="px" />
  <metadata
     id="metadata7">
    <rdf:RDF>
      <cc:Work
         rdf:about="">
        <dc:format>image/svg+xml</dc:format>
        <dc:type
           rdf:resource="http://purl.org/dc/dcmitype/StillImage" />
        <dc:title></dc:title>
      </cc:Work>
    </rdf:RDF>
  </metadata>
  <g
     inkscape:label="Layer 1"
     inkscape:groupmode="layer"
     id="layer1"
     transform="translate(0,-702.36216)">
    <rect
       style="opacity:1;fill:url(#linearGradient5634);fill-opacity:1;stroke:none;stroke-width:6;stroke-linecap:round;stroke-linejoin:round;stroke-miterlimit:4;stroke-dasharray:none;stroke-opacity:1"
       id="rect4136"
       width="350"
       height="350"
       x="0"
       y="702.36224" />
    <rect
       y="-350"
       x="702.36224"
       height="350"
       width="350"
       id="rect5636"
       style="opacity:1;fill:url(#linearGradient5638);fill-opacity:1;stroke:none;stroke-width:6;stroke-linecap:round;stroke-linejoin:round;stroke-miterlimit:4;stroke-dasharray:none;stroke-opacity:1"
       transform="matrix(0,1,-1,0,0,0)" />
  </g>
</svg>
